
Wave to 6bit and 5bit PCM formats. Ver 1.1.2

 Usage: wav2sixbit <src> <options>

  -LS.<n>   Loop starting point.
  -LE.<n>   Loop ending point.
            <n>=$ffff (4 digit hex) 
            <n>=65536 (5 digit decimal)


  Tomaitheous '16
